…
\<= \> \!= 등 많은 operator 가 가능하다. is.na (missing value 가 있느냐 없느냐) logical
operator 를 다양하게 사용해서 filter 과 같이 사용할 수 있다.

# EX

``` r
# 다이아몬드 가격이 950 이하이고, 800이상인 것만 고를 때
diamonds %>%
  filter(price <= 950 & price >= 800)
```

    ## # A tibble: 3,707 x 10
    ##    carat cut       color clarity depth table price     x     y     z
    ##    <dbl> <ord>     <ord> <ord>   <dbl> <dbl> <int> <dbl> <dbl> <dbl>
    ##  1  0.41 Very Good G     VS2      61.4  57     800  4.76  4.81  2.94
    ##  2  0.32 Ideal     F     VVS2     62.1  55     800  4.37  4.39  2.72
    ##  3  0.32 Ideal     F     VVS2     61.2  57     800  4.42  4.44  2.71
    ##  4  0.32 Ideal     F     VVS2     60.9  56     800  4.44  4.46  2.71
    ##  5  0.32 Ideal     F     VVS2     61.2  55     800  4.43  4.46  2.72
    ##  6  0.38 Ideal     I     VVS1     62.4  54.8   800  4.64  4.66  2.9 
    ##  7  0.4  Ideal     H     VS2      61.6  57     800  4.71  4.74  2.91
    ##  8  0.36 Ideal     D     VS2      61.8  55     800  4.58  4.61  2.84
    ##  9  0.31 Ideal     E     VS1      62    55     800  4.35  4.38  2.7 
    ## 10  0.31 Ideal     E     VS1      61.7  53     800  4.36  4.39  2.7 
    ## # ... with 3,697 more rows

``` r
# c로 시작하는 변수들만 선택
diamonds %>%
  select(starts_with("c"))
```

    ## # A tibble: 53,940 x 4
    ##    carat cut       color clarity
    ##    <dbl> <ord>     <ord> <ord>  
    ##  1 0.23  Ideal     E     SI2    
    ##  2 0.21  Premium   E     SI1    
    ##  3 0.23  Good      E     VS1    
    ##  4 0.290 Premium   I     VS2    
    ##  5 0.31  Good      J     SI2    
    ##  6 0.24  Very Good J     VVS2   
    ##  7 0.24  Very Good I     VVS1   
    ##  8 0.26  Very Good H     SI1    
    ##  9 0.22  Fair      E     VS2    
    ## 10 0.23  Very Good H     VS1    
    ## # ... with 53,930 more rows

``` r
# 변수의 끝나는 스펠링
diamonds %>%
  select(ends_with("e"))
```

    ## # A tibble: 53,940 x 2
    ##    table price
    ##    <dbl> <int>
    ##  1    55   326
    ##  2    61   326
    ##  3    65   327
    ##  4    58   334
    ##  5    58   335
    ##  6    57   336
    ##  7    57   336
    ##  8    55   337
    ##  9    61   337
    ## 10    61   338
    ## # ... with 53,930 more rows

``` r
# 변수에 포함된 스펠링 
diamonds %>%
  select(contains("r"))
```

    ## # A tibble: 53,940 x 4
    ##    carat color clarity price
    ##    <dbl> <ord> <ord>   <int>
    ##  1 0.23  E     SI2       326
    ##  2 0.21  E     SI1       326
    ##  3 0.23  E     VS1       327
    ##  4 0.290 I     VS2       334
    ##  5 0.31  J     SI2       335
    ##  6 0.24  J     VVS2      336
    ##  7 0.24  I     VVS1      336
    ##  8 0.26  H     SI1       337
    ##  9 0.22  E     VS2       337
    ## 10 0.23  H     VS1       338
    ## # ... with 53,930 more rows

``` r
# 특정 위치의 선택
diamonds %>%
  select(1:4)
```

    ## # A tibble: 53,940 x 4
    ##    carat cut       color clarity
    ##    <dbl> <ord>     <ord> <ord>  
    ##  1 0.23  Ideal     E     SI2    
    ##  2 0.21  Premium   E     SI1    
    ##  3 0.23  Good      E     VS1    
    ##  4 0.290 Premium   I     VS2    
    ##  5 0.31  Good      J     SI2    
    ##  6 0.24  Very Good J     VVS2   
    ##  7 0.24  Very Good I     VVS1   
    ##  8 0.26  Very Good H     SI1    
    ##  9 0.22  Fair      E     VS2    
    ## 10 0.23  Very Good H     VS1    
    ## # ... with 53,930 more rows
…
    ##   n_obs max_wind min_wind
    ## 1 10010      160       10

# grouping

``` r
storm %>%
  group_by(name,year)  # name 과 year로 오름차순으로 
```

    ## # A tibble: 10,010 x 13
    ## # Groups:   name, year [426]
    ##    name   year month   day  hour   lat  long status category  wind pressure
    ##    <chr> <dbl> <dbl> <int> <dbl> <dbl> <dbl> <chr>  <ord>    <int>    <int>
    ##  1 Amy    1975     6    27     0  27.5 -79   tropi~ -1          25     1013
    ##  2 Amy    1975     6    27     6  28.5 -79   tropi~ -1          25     1013
    ##  3 Amy    1975     6    27    12  29.5 -79   tropi~ -1          25     1013
    ##  4 Amy    1975     6    27    18  30.5 -79   tropi~ -1          25     1013
    ##  5 Amy    1975     6    28     0  31.5 -78.8 tropi~ -1          25     1012
    ##  6 Amy    1975     6    28     6  32.4 -78.7 tropi~ -1          25     1012
    ##  7 Amy    1975     6    28    12  33.3 -78   tropi~ -1          25     1011
    ##  8 Amy    1975     6    28    18  34   -77   tropi~ -1          30     1006
    ##  9 Amy    1975     6    29     0  34.4 -75.8 tropi~ 0           35     1004
    ## 10 Amy    1975     6    29     6  34   -74.8 tropi~ 0           40     1002
    ## # ... with 10,000 more rows, and 2 more variables: ts_diameter <dbl>,
    ## #   hu_diameter <dbl>

``` r
# --------- grouping + summarizing
storm %>%
  group_by(name,year) %>% # 이름과, 년도에 대해 grouping
  summarise(n_obs = n(), # 각 group 에서 갯수가 몇개?
            max_wind = max(wind), # max wind 는 얼마?
            min_wind = min(wind)) 
```

    ## `summarise()` regrouping output by 'name' (override with `.groups` argument)

    ## # A tibble: 426 x 5
    ## # Groups:   name [198]
    ##    name      year n_obs max_wind min_wind
    ##    <chr>    <dbl> <int>    <int>    <int>
    ##  1 AL011993  1993     8       30       25
    ##  2 AL012000  2000     4       25       25
    ##  3 AL021992  1992     5       30       25
    ##  4 AL021994  1994     6       30       15
    ##  5 AL021999  1999     4       30       25
    ##  6 AL022000  2000    12       30       25
    ##  7 AL022001  2001     5       25       25
    ##  8 AL022003  2003     4       30       30
    ##  9 AL022006  2006     5       45       30
    ## 10 AL031987  1987    32       40       10
    ## # ... with 416 more rows
…
colnames(diamonds)
```

    ##  [1] "carat"   "cut"     "color"   "clarity" "depth"   "table"   "price"  
    ##  [8] "width"   "length"  "heigth"

# sampling 함수

``` r
# 전체 관측치 중에서 100개만 비복원 추출
diamonds %>%
  sample_n(100)
```

    ## # A tibble: 100 x 10
    ##    carat cut       color clarity depth table price width length heigth
    ##    <dbl> <ord>     <ord> <ord>   <dbl> <dbl> <int> <dbl>  <dbl>  <dbl>
    ##  1  0.32 Very Good I     SI1      63.1    56   554  4.39   4.36   2.76
    ##  2  0.71 Very Good D     VS1      63.4    55  2841  5.69   5.61   3.58
    ##  3  2.28 Good      J     SI1      63.7    55 14220  8.28   8.35   5.3 
    ##  4  0.45 Good      E     SI2      64.1    62   680  4.82   4.75   3.07
    ##  5  0.31 Premium   G     SI1      60.7    60   593  4.36   4.34   2.64
    ##  6  0.73 Ideal     F     VS2      62.5    55  2801  5.8    5.76   3.61
    ##  7  1.29 Premium   G     VS2      58.7    58  8842  7.27   7.11   4.22
    ##  8  0.3  Premium   G     VS2      62.2    60   675  4.25   4.24   2.64
    ##  9  0.71 Ideal     D     SI1      60.6    56  3674  5.78   5.81   3.51
    ## 10  0.3  Ideal     G     SI2      62.5    56   382  4.28   4.3    2.68
    ## # ... with 90 more rows

``` r
# 100개만 복원 추출
diamonds %>%
  sample_n(100,
           replace = T)
```

    ## # A tibble: 100 x 10
    ##    carat cut       color clarity depth table price width length heigth
    ##    <dbl> <ord>     <ord> <ord>   <dbl> <dbl> <int> <dbl>  <dbl>  <dbl>
    ##  1 1.63  Ideal     D     SI2      59.4    59 10281  7.73   7.67   4.57
    ##  2 0.3   Good      G     VS1      63.4    55   565  4.26   4.32   2.72
    ##  3 0.4   Very Good F     VS1      61.5    59   982  4.71   4.76   2.91
    ##  4 0.570 Ideal     E     VS2      60.8    56  1819  5.4    5.35   3.27
    ##  5 1     Very Good I     VS1      60.8    59  5557  6.39   6.44   3.9 
    ##  6 0.53  Ideal     F     SI1      61.6    54  1284  5.23   5.25   3.23
    ##  7 1.01  Very Good H     VS1      63.5    56  4412  6.32   6.27   4   
    ##  8 2.01  Ideal     I     SI2      62.3    57 13796  8.06   8.08   5.03
    ##  9 0.59  Ideal     G     VS1      62.1    55  1916  5.35   5.4    3.34
    ## 10 0.570 Premium   E     SI1      61.4    58  1728  5.34   5.28   3.26
    ## # ... with 90 more rows

``` r
# 전체 데이터중에 30% 비복원 추출
diamonds %>%
  sample_frac(.3)
```

    ## # A tibble: 16,182 x 10
    ##    carat cut       color clarity depth table price width length heigth
    ##    <dbl> <ord>     <ord> <ord>   <dbl> <dbl> <int> <dbl>  <dbl>  <dbl>
    ##  1 0.35  Very Good G     IF       62.6    59   898  4.43   4.49   2.79
    ##  2 2.52  Fair      H     SI2      65.4    59 13846  8.49   8.42   5.53
    ##  3 1.4   Premium   F     VS2      60.7    58 11368  7.26   7.17   4.38
    ##  4 0.4   Very Good D     SI2      61.6    59   666  4.68   4.74   2.9 
    ##  5 0.92  Ideal     I     SI1      62.1    55  3610  6.24   6.29   3.89
    ##  6 0.53  Good      G     VS1      63.8    56  1591  5.17   5.11   3.28
    ##  7 0.5   Good      G     VS2      63.2    57  1410  4.99   5.04   3.17
    ##  8 0.580 Ideal     G     IF       62.1    56  2528  5.35   5.37   3.32
    ##  9 1.01  Ideal     D     VVS2     62.3    53 11082  6.4    6.47   4.02
    ## 10 0.62  Ideal     E     VVS2     62      56  2904  5.48   5.52   3.41
    ## # ... with 16,172 more rows

\#————————– Advanced working——————–\#

``` r
# group by 로 두개 변수의 combination 에 대해서 각 value 들의 count
diamonds %>% 
  group_by(cut,color) %>%
  summarise(count = n())
```

    ## `summarise()` regrouping output by 'cut' (override with `.groups` argument)

    ## # A tibble: 35 x 3
    ## # Groups:   cut [5]
    ##    cut   color count
    ##    <ord> <ord> <int>
    ##  1 Fair  D       163
    ##  2 Fair  E       224
    ##  3 Fair  F       312
    ##  4 Fair  G       314
    ##  5 Fair  H       303
    ##  6 Fair  I       175
    ##  7 Fair  J       119
    ##  8 Good  D       662
    ##  9 Good  E       933
    ## 10 Good  F       909
    ## # ... with 25 more rows

``` r
# 이렇게 해도 위와 같다.
diamonds %>%
  count(cut,color) 
```

    ## # A tibble: 35 x 3
    ##    cut   color     n
    ##    <ord> <ord> <int>
    ##  1 Fair  D       163
    ##  2 Fair  E       224
    ##  3 Fair  F       312
    ##  4 Fair  G       314
    ##  5 Fair  H       303
    ##  6 Fair  I       175
    ##  7 Fair  J       119
    ##  8 Good  D       662
    ##  9 Good  E       933
    ## 10 Good  F       909
    ## # ... with 25 more rows

``` r
# group by 로 두개 변수의 combination에 대해서, unique 한 clarity 의 count
diamonds %>% 
  group_by(cut ,color) %>%
  summarise(count = n_distinct(clarity))
```

    ## `summarise()` regrouping output by 'cut' (override with `.groups` argument)

    ## # A tibble: 35 x 3
    ## # Groups:   cut [5]
    ##    cut   color count
    ##    <ord> <ord> <int>
    ##  1 Fair  D         8
    ##  2 Fair  E         7
    ##  3 Fair  F         8
    ##  4 Fair  G         8
    ##  5 Fair  H         7
    ##  6 Fair  I         7
    ##  7 Fair  J         7
    ##  8 Good  D         8
    ##  9 Good  E         8
    ## 10 Good  F         8
    ## # ... with 25 more rows
…
