…
\<= \> \!= 등 많은 operator 가 가능하다. is.na (missing value 가 있느냐 없느냐) logical
operator 를 다양하게 사용해서 filter 과 같이 사용할 수 있다.

# EX

``` r
# 다이아몬드 가격이 950 이하이고, 800이상인 것만 고를 때
diamonds %>%
  filter(price <= 950 & price >= 800)
```

    ## # A tibble: 3,707 x 10
    ##    carat cut       color clarity depth table price     x     y     z
    ##    <dbl> <ord>     <ord> <ord>   <dbl> <dbl> <int> <dbl> <dbl> <dbl>
    ##  1  0.41 Very Good G     VS2      61.4  57     800  4.76  4.81  2.94
    ##  2  0.32 Ideal     F     VVS2     62.1  55     800  4.37  4.39  2.72
    ##  3  0.32 Ideal     F     VVS2     61.2  57     800  4.42  4.44  2.71
    ##  4  0.32 Ideal     F     VVS2     60.9  56     800  4.44  4.46  2.71
    ##  5  0.32 Ideal     F     VVS2     61.2  55     800  4.43  4.46  2.72
    ##  6  0.38 Ideal     I     VVS1     62.4  54.8   800  4.64  4.66  2.9 
    ##  7  0.4  Ideal     H     VS2      61.6  57     800  4.71  4.74  2.91
    ##  8  0.36 Ideal     D     VS2      61.8  55     800  4.58  4.61  2.84
    ##  9  0.31 Ideal     E     VS1      62    55     800  4.35  4.38  2.7 
    ## 10  0.31 Ideal     E     VS1      61.7  53     800  4.36  4.39  2.7 
    ## # ... with 3,697 more rows

``` r
# c로 시작하는 변수들만 선택
diamonds %>%
  select(starts_with("c"))
```

    ## # A tibble: 53,940 x 4
    ##    carat cut       color clarity
    ##    <dbl> <ord>     <ord> <ord>  
    ##  1 0.23  Ideal     E     SI2    
    ##  2 0.21  Premium   E     SI1    
    ##  3 0.23  Good      E     VS1    
    ##  4 0.290 Premium   I     VS2    
    ##  5 0.31  Good      J     SI2    
    ##  6 0.24  Very Good J     VVS2   
    ##  7 0.24  Very Good I     VVS1   
    ##  8 0.26  Very Good H     SI1    
    ##  9 0.22  Fair      E     VS2    
    ## 10 0.23  Very Good H     VS1    
    ## # ... with 53,930 more rows

``` r
# 변수의 끝나는 스펠링
diamonds %>%
  select(ends_with("e"))
```

    ## # A tibble: 53,940 x 2
    ##    table price
    ##    <dbl> <int>
    ##  1    55   326
    ##  2    61   326
    ##  3    65   327
    ##  4    58   334
    ##  5    58   335
    ##  6    57   336
    ##  7    57   336
    ##  8    55   337
    ##  9    61   337
    ## 10    61   338
    ## # ... with 53,930 more rows

``` r
# 변수에 포함된 스펠링 
diamonds %>%
  select(contains("r"))
```

    ## # A tibble: 53,940 x 4
    ##    carat color clarity price
    ##    <dbl> <ord> <ord>   <int>
    ##  1 0.23  E     SI2       326
    ##  2 0.21  E     SI1       326
    ##  3 0.23  E     VS1       327
    ##  4 0.290 I     VS2       334
    ##  5 0.31  J     SI2       335
    ##  6 0.24  J     VVS2      336
    ##  7 0.24  I     VVS1      336
    ##  8 0.26  H     SI1       337
    ##  9 0.22  E     VS2       337
    ## 10 0.23  H     VS1       338
    ## # ... with 53,930 more rows

``` r
# 특정 위치의 선택
diamonds %>%
  select(1:4)
```

    ## # A tibble: 53,940 x 4
    ##    carat cut       color clarity
    ##    <dbl> <ord>     <ord> <ord>  
    ##  1 0.23  Ideal     E     SI2    
    ##  2 0.21  Premium   E     SI1    
    ##  3 0.23  Good      E     VS1    
    ##  4 0.290 Premium   I     VS2    
    ##  5 0.31  Good      J     SI2    
    ##  6 0.24  Very Good J     VVS2   
    ##  7 0.24  Very Good I     VVS1   
    ##  8 0.26  Very Good H     SI1    
    ##  9 0.22  Fair      E     VS2    
    ## 10 0.23  Very Good H     VS1    
    ## # ... with 53,930 more rows
…
    ##   n_obs max_wind min_wind
    ## 1 10010      160       10

# grouping

``` r
storm %>%
  group_by(name,year)  # name 과 year로 오름차순으로 
```

    ## # A tibble: 10,010 x 13
    ## # Groups:   name, year [426]
    ##    name   year month   day  hour   lat  long status category  wind pressure
    ##    <chr> <dbl> <dbl> <int> <dbl> <dbl> <dbl> <chr>  <ord>    <int>    <int>
    ##  1 Amy    1975     6    27     0  27.5 -79   tropi~ -1          25     1013
    ##  2 Amy    1975     6    27     6  28.5 -79   tropi~ -1          25     1013
    ##  3 Amy    1975     6    27    12  29.5 -79   tropi~ -1          25     1013
    ##  4 Amy    1975     6    27    18  30.5 -79   tropi~ -1          25     1013
    ##  5 Amy    1975     6    28     0  31.5 -78.8 tropi~ -1          25     1012
    ##  6 Amy    1975     6    28     6  32.4 -78.7 tropi~ -1          25     1012
    ##  7 Amy    1975     6    28    12  33.3 -78   tropi~ -1          25     1011
    ##  8 Amy    1975     6    28    18  34   -77   tropi~ -1          30     1006
    ##  9 Amy    1975     6    29     0  34.4 -75.8 tropi~ 0           35     1004
    ## 10 Amy    1975     6    29     6  34   -74.8 tropi~ 0           40     1002
    ## # ... with 10,000 more rows, and 2 more variables: ts_diameter <dbl>,
    ## #   hu_diameter <dbl>

``` r
# --------- grouping + summarizing
storm %>%
  group_by(name,year) %>% # 이름과, 년도에 대해 grouping
  summarise(n_obs = n(), # 각 group 에서 갯수가 몇개?
            max_wind = max(wind), # max wind 는 얼마?
            min_wind = min(wind)) 
```

    ## `summarise()` regrouping output by 'name' (override with `.groups` argument)

    ## # A tibble: 426 x 5
    ## # Groups:   name [198]
    ##    name      year n_obs max_wind min_wind
    ##    <chr>    <dbl> <int>    <int>    <int>
    ##  1 AL011993  1993     8       30       25
    ##  2 AL012000  2000     4       25       25
    ##  3 AL021992  1992     5       30       25
    ##  4 AL021994  1994     6       30       15
    ##  5 AL021999  1999     4       30       25
    ##  6 AL022000  2000    12       30       25
    ##  7 AL022001  2001     5       25       25
    ##  8 AL022003  2003     4       30       30
    ##  9 AL022006  2006     5       45       30
    ## 10 AL031987  1987    32       40       10
    ## # ... with 416 more rows
…
colnames(diamonds)
```

    ##  [1] "carat"   "cut"     "color"   "clarity" "depth"   "table"   "price"  
    ##  [8] "width"   "length"  "heigth"

# sampling 함수

``` r
# 전체 관측치 중에서 100개만 비복원 추출
diamonds %>%
  sample_n(100)
```

    ## # A tibble: 100 x 10
    ##    carat cut       color clarity depth table price width length heigth
    ##    <dbl> <ord>     <ord> <ord>   <dbl> <dbl> <int> <dbl>  <dbl>  <dbl>
    ##  1  0.9  Good      F     SI1      64.2    56  4232  6.02   6.1    3.89
    ##  2  0.4  Premium   G     VS2      61.9    58   966  4.76   4.74   2.94
    ##  3  0.32 Very Good F     IF       61.7    55   921  4.4    4.41   2.72
    ##  4  1.02 Good      I     SI1      64.2    53  3998  6.3    6.26   4.03
    ##  5  1.83 Fair      H     I1       68      57  6887  7.47   7.44   5.07
    ##  6  0.34 Very Good E     SI2      62.9    56   477  4.45   4.48   2.81
    ##  7  1.11 Premium   G     VS2      62.3    58  6713  6.65   6.61   4.13
    ##  8  1.56 Ideal     F     SI1      61.2    57 11047  7.48   7.52   4.59
    ##  9  0.51 Premium   G     VS1      62.2    58  1662  5.11   5.09   3.17
    ## 10  1.02 Very Good F     VVS1     62.4    58  8990  6.38   6.41   3.99
    ## # ... with 90 more rows

``` r
# 100개만 복원 추출
diamonds %>%
  sample_n(100,
           replace = T)
```

    ## # A tibble: 100 x 10
    ##    carat cut       color clarity depth table price width length heigth
    ##    <dbl> <ord>     <ord> <ord>   <dbl> <dbl> <int> <dbl>  <dbl>  <dbl>
    ##  1  0.37 Premium   D     VS1      60.2    60  1030  4.68   4.63   2.8 
    ##  2  0.31 Very Good F     VS1      61.8    58   592  4.29   4.35   2.67
    ##  3  0.59 Very Good F     SI2      58.6    59  1247  5.53   5.57   3.25
    ##  4  0.52 Very Good D     VS2      60      57  1664  5.22   5.25   3.14
    ##  5  1    Very Good F     VS2      61.9    58  6927  6.41   6.49   3.99
    ##  6  0.41 Ideal     E     VS1      61.7    55  1079  4.75   4.78   2.94
    ##  7  0.3  Premium   D     SI1      62.5    58   552  4.27   4.31   2.68
    ##  8  0.3  Ideal     G     VVS1     62.6    55   753  4.27   4.32   2.69
    ##  9  0.41 Very Good F     IF       61.6    58  1313  4.75   4.79   2.94
    ## 10  0.32 Very Good I     VVS1     60.1    61   589  4.4    4.45   2.66
    ## # ... with 90 more rows

``` r
# 전체 데이터중에 30% 비복원 추출
diamonds %>%
  sample_frac(.3)
```

    ## # A tibble: 16,182 x 10
    ##    carat cut     color clarity depth table price width length heigth
    ##    <dbl> <ord>   <ord> <ord>   <dbl> <dbl> <int> <dbl>  <dbl>  <dbl>
    ##  1  0.71 Premium F     VS1      61.8    59  2765  5.69   5.73   3.53
    ##  2  1.31 Ideal   G     VVS2     59.2    59 11459  7.12   7.18   4.23
    ##  3  0.33 Premium D     VVS1     61.8    58  1207  4.43   4.4    2.73
    ##  4  0.6  Good    E     VS1      58.1    63  2065  5.53   5.63   3.24
    ##  5  0.61 Ideal   F     VVS2     62.2    55  2634  5.42   5.45   3.38
    ##  6  0.7  Fair    D     SI1      66      56  2093  5.45   5.52   3.62
    ##  7  0.54 Ideal   G     VS2      61      57  1644  5.24   5.28   3.21
    ##  8  1.51 Ideal   H     VS1      62.3    57 11967  7.34   7.29   4.55
    ##  9  0.5  Premium D     SI1      60.7    61  1654  5.12   5.09   3.1 
    ## 10  0.31 Ideal   G     IF       62.2    55   891  4.35   4.4    2.72
    ## # ... with 16,172 more rows

\#————————– Advanced working——————–\#

``` r
# group by 로 두개 변수의 combination 에 대해서 각 value 들의 count
diamonds %>% 
  group_by(cut,color) %>%
  summarise(count = n())
```

    ## `summarise()` regrouping output by 'cut' (override with `.groups` argument)

    ## # A tibble: 35 x 3
    ## # Groups:   cut [5]
    ##    cut   color count
    ##    <ord> <ord> <int>
    ##  1 Fair  D       163
    ##  2 Fair  E       224
    ##  3 Fair  F       312
    ##  4 Fair  G       314
    ##  5 Fair  H       303
    ##  6 Fair  I       175
    ##  7 Fair  J       119
    ##  8 Good  D       662
    ##  9 Good  E       933
    ## 10 Good  F       909
    ## # ... with 25 more rows

``` r
# 이렇게 해도 위와 같다.
diamonds %>%
  count(cut,color) 
```

    ## # A tibble: 35 x 3
    ##    cut   color     n
    ##    <ord> <ord> <int>
    ##  1 Fair  D       163
    ##  2 Fair  E       224
    ##  3 Fair  F       312
    ##  4 Fair  G       314
    ##  5 Fair  H       303
    ##  6 Fair  I       175
    ##  7 Fair  J       119
    ##  8 Good  D       662
    ##  9 Good  E       933
    ## 10 Good  F       909
    ## # ... with 25 more rows

``` r
# group by 로 두개 변수의 combination에 대해서, unique 한 clarity 의 count
diamonds %>% 
  group_by(cut ,color) %>%
  summarise(count = n_distinct(clarity))
```

    ## `summarise()` regrouping output by 'cut' (override with `.groups` argument)

    ## # A tibble: 35 x 3
    ## # Groups:   cut [5]
    ##    cut   color count
    ##    <ord> <ord> <int>
    ##  1 Fair  D         8
    ##  2 Fair  E         7
    ##  3 Fair  F         8
    ##  4 Fair  G         8
    ##  5 Fair  H         7
    ##  6 Fair  I         7
    ##  7 Fair  J         7
    ##  8 Good  D         8
    ##  9 Good  E         8
    ## 10 Good  F         8
    ## # ... with 25 more rows
…
